The eurlex R package | Michal Ovádek
…
elx_run_query(): Execute SPARQL queries

elx_run_query() sends SPARQL queries to a pre-specified endpoint. The function takes the query string as the main argument, which means you can manually pass it any working SPARQL query (relevant to official EU publications).

results <- elx_run_query(query = query_dir)

# the functions are compatible with piping
# 
# elx_make_query("directive") %>% 
#   elx_run_query()

as_tibble(results)

## # A tibble: 4,352 x 3
##    work                                  type                            celex  
##    <chr>                                 <chr>                           <chr>  
##  1 http://publications.europa.eu/resour~ http://publications.europa.eu/~ 31979L~
##  2 http://publications.europa.eu/resour~ http://publications.europa.eu/~ 31989L~
##  3 http://publications.europa.eu/resour~ http://publications.europa.eu/~ 31984L~
##  4 http://publications.europa.eu/resour~ http://publications.europa.eu/~ 31966L~
##  5 http://publications.europa.eu/resour~ http://publications.europa.eu/~ 31993L~
##  6 http://publications.europa.eu/resour~ http://publications.europa.eu/~ 31992L~
##  7 http://publications.europa.eu/resour~ http://publications.europa.eu/~ 31983L~
##  8 http://publications.europa.eu/resour~ http://publications.europa.eu/~ 31966L~
##  9 http://publications.europa.eu/resour~ http://publications.europa.eu/~ 31974L~
## 10 http://publications.europa.eu/resour~ http://publications.europa.eu/~ 31982L~
## # ... with 4,342 more rows
…
We want to know a bit more about the directives from 1970s that are still in force today. Their titles could give us a clue.

dirs_1970_title <- dirs %>% 
  filter(between(as.Date(date), as.Date("1970-01-01"), as.Date("1980-01-01")),
         force == "true") %>% 
  mutate(title = map_chr(work,elx_fetch_data,"title")) %>% 
  as_tibble()

print(dirs_1970_title)

## # A tibble: 64 x 6
##    work                 type              celex  date  force title              
##    <chr>                <chr>             <chr>  <chr> <chr> <chr>              
##  1 http://publications~ http://publicati~ 31975~ 1975~ true  Council Directive ~
##  2 http://publications~ http://publicati~ 31977~ 1977~ true  First Commission D~
##  3 http://publications~ http://publicati~ 31977~ 1977~ true  Council Directive ~
##  4 http://publications~ http://publicati~ 31973~ 1973~ true  Council Directive ~
##  5 http://publications~ http://publicati~ 31974~ 1974~ true  Council Directive ~
##  6 http://publications~ http://publicati~ 31972~ 1972~ true  Council Directive ~
##  7 http://publications~ http://publicati~ 31972~ 1972~ true  Council Directive ~
##  8 http://publications~ http://publicati~ 31977~ 1977~ true  Council Directive ~
##  9 http://publications~ http://publicati~ 31979~ 1978~ true  Council Directive ~
## 10 http://publications~ http://publicati~ 31979~ 1979~ true  Council Directive ~
## # ... with 54 more rows
…
